<svg width="600" height="600" xmlns="http://www.w3.org/2000/svg">
 <defs>
  <radialGradient r="0.5" cy="0.5" cx="0.5" spreadMethod="pad" id="svg_12">
   <stop offset="0.26563" stop-opacity="0.99219" stop-color="#23e023"/>
   <stop offset="1" stop-opacity="0.99609" stop-color="#183df4"/>
  </radialGradient>
  <radialGradient x2="1" x1="1" r="0.5" cy="0.5" cx="0.5" spreadMethod="pad" id="svg_14">
   <stop offset="0.26563" stop-opacity="0.99219" stop-color="#23e023"/>
   <stop offset="1" stop-opacity="0.99609" stop-color="#183df4"/>
  </radialGradient>
  <radialGradient x2="1" x1="1" r="0.5" cy="0.5" cx="0.5" spreadMethod="pad" id="svg_15">
   <stop offset="0.26563" stop-opacity="0.99219" stop-color="#23e023"/>
   <stop offset="1" stop-opacity="0.99609" stop-color="#183df4"/>
  </radialGradient>
  <radialGradient x2="1" x1="1" r="0.5" cy="0.5" cx="0.5" spreadMethod="pad" id="svg_16">
   <stop offset="0.26563" stop-opacity="0.99219" stop-color="#23e023"/>
   <stop offset="1" stop-opacity="0.99609" stop-color="#183df4"/>
  </radialGradient>
 </defs>
 <g>
  <title>Layer 1</title>
  <path stroke="null" id="svg_2" d="m376.64859,44.75621c-1.04419,-0.19314 -8.62839,7.68508 -8.77144,9.2726c-0.20884,2.31812 -5.01227,2.31812 -6.2653,2.31812c-1.2531,0 -10.23338,5.02264 -16.28984,10.43169c-6.05653,5.40899 -23.80824,0.38634 -25.06128,0c-1.2531,-0.3864 -58.47638,-10.62483 -73.9308,-3.47721c-7.42233,3.43277 -22.05244,-8.69523 -23.96489,-33.90291c0.78316,-16.80651 17.12258,-17.43725 20.51895,-12.31512c2.50613,2.26983 6.78743,1.59372 5.74317,-2.55961c-0.94952,-2.78126 -7.3095,-11.34923 -19.05701,-7.58225c-9.95908,3.19351 -15.7194,10.87457 -17.85617,22.16721c-1.40968,24.34054 18.3261,42.30613 18.3261,42.30613c0,0 -1.56633,6.37494 -3.75924,10.43169c-2.19284,4.05676 -2.81936,17.9656 -2.50607,19.70417c0.31322,1.73864 -9.39802,11.30101 -12.53067,11.59072c-2.71497,1.15909 -10.33783,22.60196 -10.65105,27.2382c-2.81943,1.30395 0.31322,7.82374 3.75917,8.69306c3.44594,0.86932 4.38575,-5.21585 4.38575,-8.11351c0,-2.89767 3.44594,-16.5168 13.15719,-17.9656c9.71125,-1.44886 18.16939,-6.37494 18.16939,-6.37494c0,0 0.62658,2.89773 1.87962,4.05682c0,0 -3.13265,4.92601 -3.13265,12.17021c0.31322,3.18744 5.32549,13.03959 8.77144,13.9089c0,0 5.63879,8.11351 8.14492,8.11351c2.50613,0 6.89189,2.89767 13.78371,-0.57955c0,0 -1.25303,-7.24419 -7.5184,-5.21585c0,0 -14.72351,-10.43163 -7.51834,-15.06793c0,0 4.38569,-5.79533 6.89182,-8.11351c2.50613,-2.31812 5.01227,-6.0851 5.63879,-10.43163c0,0 20.98882,-1.15909 26.31438,-2.31818c5.32549,-1.15903 15.03674,1.73864 15.03674,3.47721c0,1.73864 -1.56633,18.25543 -4.38569,21.44287c0,0 -0.93981,4.05676 0,5.21585c0.93981,1.15903 -3.44594,10.7214 5.01227,9.85209c7.98827,1.30395 11.90409,-4.49138 2.50607,-6.37488c-0.46987,-6.23002 11.90416,-32.5989 20.04908,-28.97684c10.65105,1.44886 7.04847,-7.09928 17.54287,6.37494c10.96435,11.88043 29.76032,20.28372 30.70006,25.49956c0,0 5.63879,-1.15909 6.89189,2.89767c0,0 14.72351,1.73864 13.78371,-0.57955c-0.93981,-2.31812 -1.72297,-7.09928 -7.5184,-5.21578c0,0 -13.15719,-4.78122 -25.68779,-29.55638c0,0 1.56633,-6.37488 -0.62652,-11.59072c-2.19291,-5.21578 1.25303,-26.65866 16.91636,-25.49956c0,0 5.84762,1.93178 9.39795,-6.95442c0,0 1.46194,-1.73864 0,-3.47721c-1.46187,-1.73864 -5.01227,-4.4431 -5.63879,-6.37488c-0.62652,-1.93184 -2.08846,-4.8295 -10.02447,-7.53403c-3.75924,-3.62207 0.41761,-10.81797 -0.62658,-11.01118z" fill="url(#svg_14)"/>
  <path transform="rotate(60 495.271 186.638)" stroke="null" id="svg_3" d="m531.85041,274.59895c7.13528,-2.848 -2.17571,-8.54213 -5.70079,-11.06094c-2.37444,-1.93981 13.60809,0.27211 6.8604,-6.46176c-7.40319,-5.5012 -4.60666,-14.80803 2.79333,-19.13418c10.18393,-6.08631 23.25056,-11.29534 27.01288,-22.66014c3.80426,-7.07863 -5.21761,-14.53387 0.58521,-20.92605c4.67075,-8.29958 -0.78601,-16.9543 -4.17778,-24.64257c-1.55979,-10.63516 7.99521,-19.04555 13.24987,-27.78292c6.50646,-8.34963 10.25709,-18.07887 10.79604,-28.2179c1.41498,-4.32777 -0.15093,-11.04867 -5.80123,-5.21397c-11.83257,8.38614 -24.82273,16.34358 -33.10414,27.82219c-1.56758,4.14617 -7.84449,16.16294 -8.195,5.28107c-0.16416,-14.95638 -5.32511,-31.26854 -18.54965,-41.29121c-8.9951,-7.25465 -13.84612,5.44795 -14.26583,11.90294c-2.34126,12.7007 1.53966,25.29551 5.86435,37.29304c1.58764,5.57564 5.72225,20.85493 -6.06972,15.2212c-27.16448,-9.28274 -60.07626,0.46663 -77.77003,20.40792c-8.13367,9.65533 -11.6957,22.06017 -11.61528,33.97092c4.18821,6.99751 -11.37322,-0.13109 -5.73451,7.94193c3.31945,8.94298 12.69818,13.79554 19.26771,20.54565c6.68504,5.40895 1.72494,16.97353 12.78005,18.67756c16.13075,4.40141 33.06937,6.32939 49.86205,7.4516c9.39713,1.70403 13.95761,-7.80684 4.95079,-11.76075c-4.31812,-5.89195 -16.67212,-6.30485 -20.34274,-7.23825c8.77158,0.75964 19.58913,-2.40921 26.98048,2.39906c4.47629,6.43185 8.06141,14.89756 17.44825,16.7334c4.21842,1.037 8.55572,1.8686 12.87526,0.74216l0.00001,0.00001z" fill="url(#svg_15)"/>
  <path transform="rotate(120 496.823 391.489)" id="svg_4" d="m524.86565,490.2272c-5.06057,-5.29833 -12.92999,-5.90253 -14.82226,-13.44402c-1.48316,-4.10196 -15.46526,-9.60349 -7.18999,-2.24104c6.38998,4.43655 13.98167,20.80065 -1.73903,15.6304c-11.95677,-3.35902 -12.46949,-13.73137 -15.67447,-21.49678c-10.42238,-5.53519 2.69463,-17.23894 -8.52731,-24.33098c-9.52425,-7.40324 -2.89121,-21.26842 -16.50057,-26.51773c-6.83099,-2.12229 -9.78776,12.53113 -10.93792,1.8112c-3.7424,-10.84213 -16.95959,5.27046 -25.77317,3.56227c-7.11206,-0.47328 11.89663,-4.25805 2.82558,-5.27657c-5.33308,2.23479 -10.26747,6.09889 -11.1112,-0.29733c-6.41538,-2.91659 -19.86856,-7.57426 -19.51909,-12.20753c5.5711,-1.33967 24.3785,2.53674 21.11925,-2.84943c-5.59267,-1.62469 -6.60861,-6.06588 0.24131,-3.08525c13.49928,0.32416 29.32427,-3.80066 40.55653,4.08851c5.85879,2.75948 11.61935,12.65636 14.75584,3.03845c10.11059,-9.3347 30.51211,-10.12538 36.74482,-22.21147c1.50824,-5.84741 -4.63217,-9.18352 -9.84864,-10.36795c-1.01487,-1.92167 -2.7425,-10.08035 -7.05616,-5.96322c0.19661,-3.60346 4.24305,-12.22061 -4.71996,-8.40579c-0.9091,-7.67515 7.66226,-15.33242 -3.67649,-20.92155c10.6238,1.5086 8.52883,-7.76258 6.21487,-9.23295c6.2977,-0.68453 13.68834,-5.02261 10.21601,-10.39675c6.83913,9.50422 7.07627,-11.53037 12.70689,-2.46383c10.36319,1.30051 -3.21946,-7.08731 6.31213,-5.21512c5.44265,0.14256 4.23386,-4.56493 9.12322,-1.01203c6.47099,-2.70275 -4.96065,-10.87089 5.48745,-5.19557c3.51228,2.3357 14.69438,8.45326 12.68805,0.3806c9.92803,8.10678 17.74088,-7.52982 25.99069,-10.76801c3.27231,-2.99675 10.38822,-6.16824 3.82548,-0.44777c-4.3568,7.29183 -19.13796,15.18004 -15.16138,22.42553c-3.59944,2.50842 7.26241,5.66107 -1.38407,4.71142c-5.12242,4.23263 6.86751,12.15163 7.82436,18.81314c-2.74643,4.56432 -13.20417,9.74603 -17.4346,9.58225c1.54618,-5.87656 -1.80572,-13.536 -11.59601,-10.21431c5.48432,7.68147 12.89905,15.0197 17.54464,23.37316c4.54073,8.21185 11.90274,17.69488 21.58849,7.12622c6.17342,-6.73602 23.80935,-6.63851 18.9649,4.30081c-2.47649,10.74209 4.15383,24.9195 -8.58619,32.31902c-7.68548,11.33643 -16.20587,-4.21513 -10.16782,-10.09842c-1.53856,-1.68126 -2.7288,-2.86807 1.77341,-5.16624c-0.92963,-1.72387 12.95661,-8.20952 5.958,-12.18921c-7.95978,6.90919 -19.60677,14.90661 -16.36994,25.17703c2.62705,6.88242 -19.03957,18.68171 -17.30698,7.25969c0.38809,-4.43898 8.66741,-13.04223 6.76162,-14.15059c-6.04466,8.68183 -14.64348,17.02259 -27.63717,19.60024c-10.8082,0.49028 -16.46997,7.15178 -11.33736,14.54278c0.98089,10.47338 -6.24141,19.95231 -7.90415,30.14962c3.09085,10.81559 21.90878,13.00115 24.46304,24.03388c4.389,7.40959 -6.58962,6.31457 -11.7047,4.24127l0.00003,0.00001zm-26.7607,-32.2664c-1.58426,-4.88898 -4.84454,12.70893 -0.82565,3.36868l0.60164,-1.65016l0.22401,-1.71852l0,0.00001z" fill="url(#svg_12)"/>
  <path transform="rotate(180 304.5 473)" stroke="null" id="svg_5" d="m302.93942,388.36974c4.52943,1.86756 8.66262,4.35734 12.82884,6.5765c1.41983,0.75568 3.03283,1.95684 4.34865,2.3241c3.35311,0.9324 8.59989,-0.69861 12.87424,-0.86889c10.68341,-0.42248 17.60013,0.45377 26.38245,1.93015c4.11008,0.68941 8.36545,1.33555 11.97281,2.51463c3.08153,1.00788 6.6146,3.26018 10.06264,5.15443c5.44902,2.99417 9.16039,5.81346 13.40915,9.42341c7.10163,6.02976 11.57245,13.62059 16.76887,21.96064c2.26925,3.64032 5.53734,9.06444 5.69996,13.37207c3.00393,5.07619 7.56803,8.1753 8.71298,15.60596c-1.60061,4.34537 -5.74867,0.48139 -8.24823,-0.96554c-2.06701,-1.20025 -4.29086,-2.63428 -6.12261,-3.20955c-9.5203,-2.99233 -22.78747,1.28493 -32.05682,-1.45705c-3.28542,-0.97106 -6.13169,-2.93158 -9.39565,-3.76181c-3.09969,-0.79065 -5.47048,0.60933 -7.6803,1.67335c-1.17384,0.56699 -2.41041,1.33463 -3.47694,1.94488c-6.90599,3.97904 -13.80869,8.19739 -23.08051,9.78606c-7.44173,1.27296 -13.90692,-1.15607 -19.95606,-2.4686c-1.5354,-0.33412 -3.51904,-0.21262 -4.68379,-1.67427c4.82825,-1.21589 8.83515,-3.28963 13.8772,-5.50328c6.62285,-2.90489 11.76727,-4.87002 14.27013,-10.70189c-2.96431,-0.86521 -6.3975,-0.22367 -9.48315,0.37922c-3.36962,0.65535 -6.71366,1.27112 -9.94707,1.86388c-13.65267,2.50634 -23.93489,6.71365 -34.32773,12.17182c-5.04866,2.64809 -9.70108,6.33811 -13.98039,9.43537c-8.76416,6.351 -16.24551,14.23728 -23.30174,22.82861c-3.1938,3.88976 -6.04667,8.76069 -9.51039,13.40336c-1.51394,2.02956 -3.03613,4.29383 -4.65408,6.80017c-1.54613,2.38116 -3.90536,5.29986 -4.23225,7.3828c-0.36817,2.30017 0.72725,4.82216 1.27867,7.33586c0.95343,4.36654 1.65675,9.05063 1.33728,13.53407c-0.41769,5.79874 -1.57998,11.44652 -4.0168,15.83975c-1.05744,-1.04837 -1.48917,-2.89385 -2.03399,-4.58376c-2.67126,-3.80692 -6.22497,-7.60923 -6.3133,-13.94458c-7.29645,4.20454 -21.46917,3.85202 -29.97825,3.74249c-2.55817,-0.03314 -5.16422,0.26877 -7.28324,-0.84036c4.46917,-2.88832 7.74964,-6.54337 11.63436,-10.27481c5.87744,-5.63766 10.73871,-10.3871 19.40299,-13.40336c2.80829,-0.9775 6.02355,-1.50675 7.56225,-3.31817c1.18292,-1.38617 1.54283,-4.45674 2.14295,-7.4141c1.61382,-7.99581 3.7122,-16.47945 5.58439,-23.20875c5.61824,-20.22746 14.19336,-38.20446 25.60237,-52.16561c5.78169,-7.07998 12.68603,-12.84558 20.13024,-19.2564c1.27207,-2.22377 3.65524,-5.22346 4.14723,-8.61434c0.50354,-3.49121 -0.40449,-6.55533 -2.33942,-8.9006c-4.23308,-3.44426 -10.884,-3.82532 -13.75998,-8.98068c3.76008,-3.0181 8.42571,-3.90264 13.00384,-4.39599c9.89012,-1.06678 19.15617,-0.23839 26.82821,2.92882z" fill="url(#svg_16)"/>
  <path transform="rotate(-120 101.467 426.075)" id="svg_6" d="m154.92644,419.46311c0,0 17.59164,4.56788 21.76974,20.3595c0,0 3.73818,6.13399 2.63874,9.39673c-1.09944,3.26267 -2.8587,4.30677 -3.29844,4.69833c0,0 2.199,-3.00177 -5.27748,-7.83062c0,0 -3.84822,-0.78305 -4.61784,-1.56611c-0.76962,-0.78305 -12.09426,-3.39326 -14.51316,3.13222c-2.41884,6.52555 -2.96856,17.48832 -2.63874,18.01033c0.32982,0.52201 11.54454,10.44083 12.53406,13.312c0.98952,2.87118 6.26706,8.74405 8.57598,8.6136c2.30886,-0.13045 7.8063,-0.13045 9.23562,-2.34916c1.42926,-2.21871 5.60736,-2.47969 6.59688,0c0.98952,2.47961 0.6597,2.34916 0.6597,2.34916c0,0 3.51834,-0.9135 4.61784,2.34916c1.09944,3.26274 -1.64928,4.69833 -1.9791,4.69833c-0.32982,0 2.08902,-4.95937 -1.3194,-3.91527c0,0 -1.97904,0.09791 -1.97904,-0.78305c0,-0.88096 1.15446,4.60049 0,4.69833c0,0 -3.8757,-5.08982 -4.61784,-2.34916c0,0 -2.4738,0.58731 -3.29844,0.78305c-0.82458,0.19575 -0.6597,0.78305 -0.6597,0.78305c0,0 -2.14398,0.9788 -0.65964,3.91527c0,0 0,1.07671 -0.6597,1.56618c-0.6597,0.4894 0.41232,2.83856 3.29844,0.78305c0,0 0.74214,-0.78305 0.6597,0c-0.0825,0.78305 -2.96862,4.99198 -6.59688,-0.78305c0,0 -1.3194,-4.40475 0.6597,-5.48145c1.97904,-1.07671 -0.6597,-3.23013 -3.29844,-1.56611c0,0 -0.16494,3.13222 0.65964,3.91527c0.82464,0.78305 -1.40184,0.09791 -1.97904,-0.78305c-0.5772,-0.88089 -1.3194,1.85976 -1.3194,2.34916c0,0.4894 -0.74214,2.15342 -1.31934,1.56618c-0.57726,-0.58731 -6.01968,-1.27253 -5.93724,-0.78313c0.0825,0.48947 -2.55624,2.54498 -3.29844,1.56618c-0.74214,-0.97887 -4.86516,-5.97086 -5.27748,-5.48145c-0.41232,0.4894 2.80368,5.97086 4.61784,7.04756c1.8141,1.07664 9.40056,1.76186 11.87436,-0.78305c0,0 3.7932,-0.88096 3.95814,0c0,0 4.28796,2.05551 3.95814,3.13222c-0.32988,1.07671 -0.32988,0.4894 -0.6597,0c-0.32982,-0.48947 -3.05106,-2.25133 -3.29844,-1.56611c-0.24738,0.68515 0,0.78305 0,0.78305c0,0 3.46338,1.17455 3.29844,1.56611c0,0 4.04058,1.9576 3.29844,6.26444c0,0 -1.2369,1.07671 -1.3194,0c-0.08244,-1.07671 0.49476,-4.01318 -1.97904,-3.91527c0,0 -0.41232,1.56611 -1.97904,0.78305c-1.56678,-0.78305 0.90702,-2.44707 -7.25658,-1.56611c0,0 0.32982,1.85976 1.31934,2.34916c0.98952,0.4894 2.6388,0.4894 2.6388,2.34916c0,0 1.07196,1.56611 0,3.13222c0,0 -0.6597,0.4894 -0.6597,0c0,-0.4894 0.6597,-2.83856 -2.63874,-3.91527c-3.2985,-1.07671 -2.6388,-0.78305 -2.6388,-0.78305c0,0 0.57726,4.69833 -0.6597,4.69833c-1.2369,0 0.82464,2.93647 3.2985,1.56611c0,0 0.24732,-1.17455 0.65964,-0.78305c0.41232,0.39156 -2.06148,6.06869 -6.59688,-0.78305c0,0 -1.48428,-3.62162 0,-4.69833c0,0 0.98952,-3.62162 -3.95814,-2.34916c0,0 -2.06148,0.39149 -1.97904,0c0.08244,-0.39156 -0.32982,1.85976 0,2.34916c0.32982,0.4894 -3.8757,-1.07671 -3.95814,-1.56611l-1.31934,0c0,0 0.76962,4.56788 1.31934,4.69833c0.54972,0.13045 -2.52876,-2.21871 -3.29844,-3.91527c0,0 0,3.26267 0.6597,3.91527c0.6597,0.6526 -2.96862,-3.52378 -2.63874,-3.91527c0,0 0.10992,4.17632 1.31934,6.26444c1.20942,2.08812 -2.63874,-1.9576 -3.29844,-3.13222c0,0 -0.65964,0.52201 0,1.56611c0.6597,1.0441 -2.19894,-1.0441 -2.63874,-3.91527c0,0 -1.86912,-1.82715 -2.63874,-2.34916c0,0 0.10992,4.43729 0.6597,4.69833c0,0 -1.5393,-1.43566 -1.9791,-3.13222c0,0 -0.87954,1.56611 -0.6597,2.34916c0,0 -2.52876,-3.39326 -3.29844,-6.26444c-0.76962,-2.87118 -0.65964,0.78305 -0.65964,0.78305c0,0 -1.5393,-0.26111 -2.6388,-5.48138c0,0 -6.37698,7.961 -8.57592,8.6136c-2.19894,0.65253 2.63874,-3.13222 2.63874,-3.13222c0,0 -3.62826,1.30507 -3.95814,2.34916c0,0 0.32988,-1.43566 1.9791,-3.13222c1.64922,-1.69663 -1.9791,-0.78305 -1.9791,-0.78305c0,0 -0.76962,-0.26111 -0.65964,-8.61367c0,0 -4.94772,6.26451 -7.91628,6.26451c-2.96862,0 2.74872,-2.61028 3.29844,-4.6984c0.54972,-2.08812 -1.20942,-1.43559 -1.9791,-0.78305c-0.76962,0.6526 -6.4869,4.56788 -6.59688,5.48145c-0.10992,0.9135 -0.65964,-1.56611 -0.65964,-1.56611c0,0 -1.3194,0.78305 -2.6388,0.78305c-1.31934,0 3.84816,-2.87118 4.61784,-4.6984c0.76968,-1.82715 -7.1466,3.26274 -9.89532,5.48145c0,0 -2.30892,0.9135 -2.63874,0c-0.32988,-0.91358 3.95814,-4.43729 3.95814,-4.6984c0,-0.26104 1.53924,-2.47961 -1.3194,-0.78305c-2.85864,1.69663 -6.59688,0.39156 -9.23562,1.56611c-2.6388,1.17462 -5.49738,4.82885 -9.23568,4.6984c-3.73824,-0.13052 -3.73734,5.48138 -10.55496,5.48138c-3.95814,0 -2.30892,1.82715 -3.95814,1.56611c-1.64922,-0.26104 1.97904,-2.34916 1.97904,-2.34916c0,0 -3.95814,1.56611 -4.61778,1.56611c-0.6597,0 -3.62832,0.13045 3.29838,-3.13222c0,0 -5.05758,0 -3.29838,-0.78305c1.75914,-0.78305 6.15708,-2.34916 5.93718,-3.13222c-0.21996,-0.78305 -4.72776,-0.6526 -3.29844,-1.56611c1.42926,-0.91358 9.23562,-4.30684 7.25658,-4.6984c-1.9791,-0.39149 -4.83774,-0.52201 -3.29844,-1.56611c1.5393,-1.0441 20.45028,-3.52371 23.08908,-6.26444c2.63874,-2.74073 9.45552,-10.70173 11.21466,-10.96277c1.7592,-0.26111 0,-2.21871 -1.31934,-1.56618c-1.3194,0.6526 -2.52882,-0.39149 -1.9791,-4.69833c0.54978,-4.30677 -5.65824,9.44429 -9.23562,4.69833c-1.86912,-2.47961 -0.4398,-4.30677 -2.63874,-3.91527c-2.19894,0.39156 -2.08902,-2.87118 -2.63874,-1.56611c-0.54972,1.30507 -5.16756,9.39673 -7.25658,8.61367c-2.08902,-0.78305 -0.54972,-1.30507 -1.9791,-1.56611c-1.42932,-0.26111 -2.41884,-0.78305 -2.63874,-2.34924c-0.2199,-1.56611 -1.53924,1.04417 -1.97904,-1.56611c-0.4398,-2.61021 -0.76962,-5.87288 -2.63874,-3.13222c-1.86918,2.74073 -2.52888,0.91358 -2.6388,0c-0.10992,-0.9135 -4.06806,0.52201 -3.95808,-2.34916c0.10986,-2.87118 -3.84822,0.91358 -3.2985,-2.34916c0.54978,-3.26267 -3.34374,-0.44219 -2.63874,-3.13222c1.5393,-5.87295 -5.27748,-0.52201 -4.61778,-3.13222c0.65964,-2.61021 -3.18852,-0.52201 -2.6388,-3.13222c0.54978,-2.61021 -3.66072,-1.70361 -3.29844,-3.91527c0.76962,-4.6984 -3.95808,-1.43566 -3.29844,-5.48145c0.6597,-4.04572 -3.0021,-0.02713 -2.63874,-3.13222c0.54978,-4.69833 -4.71216,-2.99216 -3.29844,-6.26444c2.199,-5.08989 -2.2611,-2.90187 -1.3194,-5.48138c1.42932,-3.91527 -9.18342,0.43436 -6.59688,-6.26451c1.20948,-3.13222 -7.18296,-5.21764 -3.29844,-7.83055c6.59688,-4.43729 -10.11516,-2.21871 -1.97904,-9.39666c7.5864,-4.17632 8.05128,-4.56966 -1.3194,-3.91527c-3.73824,0.26104 -9.3456,-5.87295 -3.95808,-6.26451c5.38746,-0.39149 16.38222,-3.52371 3.95808,-4.69833c-12.42408,-1.17455 -12.86388,-6.52548 -7.91622,-6.26444c4.94766,0.26104 24.2985,0.26104 19.13094,-1.56611c-5.16756,-1.82715 -28.8168,-6.29249 -19.79064,-10.96277c4.28796,-2.21871 34.50269,9.57809 25.72782,1.56611c-1.42926,-1.30507 -15.3927,-6.00347 -20.45034,-12.52895c-5.05758,-6.52548 -4.06806,-7.43906 -1.31934,-6.26444c2.74872,1.17455 34.63343,18.40182 29.68596,12.52888c-0.8796,-1.0441 -19.13094,-11.35433 -21.76974,-20.35942c-2.63874,-9.00517 -0.10992,-6.656 1.9791,-3.91535c2.08896,2.74073 32.09117,28.91279 27.04722,20.3595c-1.5393,-2.61021 -14.9529,-13.05089 -17.8116,-23.49171c-2.8587,-10.44075 -0.6597,-7.56951 1.3194,-4.69833c1.97904,2.87118 32.55059,41.98903 27.70686,28.19004c-1.09944,-3.13222 -10.77492,-12.92044 -11.87436,-21.92561c-1.09944,-9.00517 1.75914,-5.61183 3.29844,-2.34916c1.5393,3.26274 23.19906,43.85121 23.74878,36.80372c0,0 0.10998,0.13045 0.6597,0c0.54972,-0.13052 -0.4398,-3.78482 0.6597,-3.13222c0,0 0.4398,-2.87118 1.31934,-2.34924c0.8796,0.52201 1.7592,0.13052 1.9791,-3.13222c0.21984,-3.26267 6.7068,0.52201 8.57592,17.22728c0,0 1.3194,1.69449 1.3194,5.48138c0,1.95767 7.91622,11.48485 12.53406,10.96284c4.61784,-0.52201 11.21472,10.96277 13.19376,11.74582c1.97904,0.78305 6.37698,5.48138 13.19376,0.78305c6.81678,-4.69833 13.52364,-6.26444 7.91628,-7.04749c-5.60736,-0.78305 -4.50786,-3.39326 -1.97904,-3.91527c2.52876,-0.52201 13.52358,-0.78305 9.89532,-3.13222c-3.62832,-2.34924 -6.76254,-14.90026 -1.9791,-11.74589c1.9791,1.30507 9.0075,12.90207 7.91628,4.69833c-0.32988,-2.47961 -4.61784,-5.48138 -3.29844,-14.09499c1.31934,-8.61367 3.14862,-1.76093 3.29844,-0.78305c0.2199,1.43559 5.55378,19.25943 6.59688,10.17971c0.32982,-2.87118 -2.41884,-6.656 -1.3194,-17.22728c1.09944,-10.5712 2.63874,0 2.63874,0c0,0 3.13704,10.8257 2.6388,16.44422c-0.21996,2.47969 2.85864,1.56611 2.63874,-3.13222c-0.21996,-4.69833 -1.86912,-15.00856 -0.6597,-14.87811c1.20948,0.13052 4.83318,6.98946 3.95814,12.52895c-0.32988,2.08812 4.72776,4.17632 -0.6597,8.6136c-5.3874,4.43729 -11.21472,13.312 -11.21472,13.312c0,0 1.30344,5.73552 -5.27748,8.6136c-4.17804,1.82715 -0.6597,5.48138 -0.6597,5.48138z" fill="url(#svg_12)"/>
  <path transform="rotate(-60 120.764 199.731)" id="svg_7" d="m30.31983,150.00528c-0.94721,0 -1.43407,-0.84802 -1.43407,-1.86494c0,-0.84782 0.24339,-1.67096 0.94721,-1.67096c0.48686,0 1.21977,0.82314 1.46317,1.67096c0.48686,1.23441 0,1.86494 -0.9763,1.86494zm161.91492,48.38687c2.16705,0 2.65384,0.21749 1.43407,1.67076c-0.70381,1.01693 -2.16698,1.86475 -2.87079,1.86475c-0.73284,0 -1.46317,-0.84782 -1.46317,-1.86475c0,-1.04187 0.97638,-1.67076 2.89989,-1.67076zm-151.29432,-59.18804c-2.16698,-0.41147 -2.41045,-2.49508 0,-3.12417c1.2197,-0.19372 1.92358,0.41141 1.92358,1.67096c0,1.04174 -0.70389,1.64713 -1.92358,1.45321zm-27.01187,65.82297c2.89989,-0.60546 2.89989,-1.04062 1.92358,-2.4702c-0.73033,-1.04062 -0.97373,-2.30005 -0.48686,-2.71158c0.24339,-0.6302 1.46317,0 2.16698,1.23454c0.9763,1.67096 1.70656,1.88976 3.63015,0.84782c1.19333,-0.62902 2.16698,-1.04161 2.16698,-0.41141c0,0.41141 0.73291,0 1.68012,-0.84782c1.46324,-1.23454 1.70664,-3.94724 0.24347,-5.40059c-1.19067,-1.23454 -7.23385,-0.82301 -8.91396,0.62902c-0.97373,1.04194 -1.70664,0.82432 -2.65384,-1.04043c-1.46317,-3.1006 -1.46317,-3.5359 1.92351,-3.72963c2.89989,0 2.89989,0 0.48686,-1.25942c-1.21712,-0.60546 -2.41037,-1.86475 -2.41037,-2.68789c0,-2.08348 3.36023,-3.31802 4.8234,-1.86468c0.48686,0.60532 1.43414,1.23454 2.41045,1.23454c1.92358,0 11.10739,-7.04673 11.10739,-8.50007c0,-0.63014 0.94986,-1.04154 1.92358,-0.63014c1.19325,0.21873 3.36031,-0.41141 5.55638,-1.45334c3.11418,-1.67083 3.11418,-1.86475 1.43407,-4.57633c-1.19067,-1.86475 -2.65384,-2.49508 -6.04059,-2.49508c-3.84709,0 -4.8234,0.4116 -6.01407,2.90668c-0.48952,1.67076 -1.95261,2.90537 -2.89989,2.90537c-1.68012,0 -2.16698,-1.86363 -0.48686,-2.90537c0.73026,-0.4116 1.21712,-1.86475 1.21712,-3.31809c0,-2.27642 -0.48686,-2.68789 -3.63015,-2.08236c-3.14328,0.41141 -3.14328,0.21749 -2.41045,-2.90682c0.48686,-1.86468 1.19067,-3.53551 1.68019,-3.72943c0.48686,-0.21749 0.97365,-2.08236 0.97365,-3.94711c0,-3.72982 1.43672,-4.35885 4.09321,-1.67096c1.21705,1.45328 1.95003,1.67096 2.41037,0.41141c0.48686,-0.82301 2.19343,-1.01693 4.84992,-0.60552c3.6037,0.82314 3.84709,0.60552 3.36023,-1.86475c-0.24339,-1.45315 -0.48944,-3.12411 -0.73284,-3.53551c0,-0.62922 -1.19067,-1.45334 -2.6274,-2.08256c-2.89989,-1.04154 -3.63015,-3.53551 -0.9763,-3.53551c0.73291,0 1.43665,-0.4116 1.43665,-1.23586c0,-0.62922 1.46324,-1.04062 3.38675,-0.84795c2.65649,0.21873 4.09056,-0.60519 7.72071,-4.96384c2.65649,-3.1243 4.58,-4.79513 4.82347,-3.94731c0.24339,1.04062 1.46317,1.64595 2.65642,1.64595c1.92358,0 2.16705,-0.60532 1.46324,-3.31691c-0.24605,-1.86488 -1.46324,-4.14103 -2.19608,-5.18297c-2.16705,-2.30097 -2.16705,-4.98885 0,-4.16604c1.70656,0.82432 7.01682,-1.45203 7.01682,-2.90531c0,-0.6302 0.70646,-1.04174 1.68012,-1.04174c0.97638,0 1.43672,1.25936 1.43672,2.90662c0,2.08236 0.48686,2.9055 1.70664,2.29998c0.94721,-0.43523 1.68019,-1.67096 1.68019,-2.4939c0,-2.49521 7.72064,-6.85393 9.64415,-5.61827c0.73298,0.41173 1.46317,0 1.70936,-1.45315c0.70374,-2.90662 5.06414,-5.18297 6.98765,-3.72963c0.97638,0.60532 1.92366,0.4116 2.1697,-0.21749c0.48679,-0.82425 2.41037,-1.45334 4.57735,-1.64739c2.16698,-0.21749 5.06687,-1.04174 6.28664,-1.88956c4.57735,-2.68789 9.15743,-2.49397 11.08094,0.41285c1.21977,2.08223 1.70656,2.08223 1.70656,0.62889c0,-1.86488 0.94993,-2.08236 6.74706,-1.45315c9.18388,0.82425 10.6206,0.82425 14.00735,-0.21768c2.16698,-0.60546 2.89981,-0.41154 2.89981,1.25923c0,1.04194 0.70389,1.86494 1.68019,1.86494c0.73026,0 1.43407,-0.60552 1.43407,-1.23573c0,-1.67076 3.87627,-2.4939 7.26294,-1.67076c2.6274,0.82425 2.87079,1.04154 2.16698,6.63605c-0.24339,3.34179 0,5.61814 0.46042,5.61814c0.48679,0 0.9763,-1.45334 0.9763,-3.53571c0,-3.51201 2.65384,-4.96417 3.63015,-2.08243c0.24347,1.04069 0.94721,0.62909 1.43407,-1.01686c1.21985,-4.35996 3.87627,-2.08368 3.14328,2.68789c-0.73018,3.94711 -0.73018,3.94711 1.43679,2.49377c1.2197,-0.62909 2.16691,-2.27615 2.16691,-3.31691c0,-1.04181 0.73298,-2.27747 1.70671,-2.71277c1.92344,-0.82281 4.09314,2.30018 3.38668,4.57745c-0.24339,1.04082 -0.24339,1.86488 0.46034,1.86488c0.48952,0 0.97638,-0.60532 0.97638,-1.04174c0,-0.60546 1.19325,-0.82314 2.65642,-0.41141c3.1407,0.62909 3.60105,2.29985 0.94728,3.31678c-0.70381,0.43642 -1.43672,1.45334 -1.43672,2.3013c0,1.45334 0.48944,1.45334 3.14328,0c4.33396,-2.4939 6.25747,-2.3013 6.99045,0.41141c0.48679,1.45334 1.43665,2.08355 2.41037,1.45334c0.9763,-0.21762 3.14328,0.6302 4.82347,2.08236c1.46317,1.23566 3.63015,2.27635 4.60645,2.27635c1.43672,0 1.43672,1.04187 0.94721,3.94836c-0.48679,3.1243 -0.48679,3.53571 0.97638,2.27648c1.92351,-2.05886 2.65384,-1.86508 3.36031,1.04043c0.24339,1.45334 1.94996,2.49508 3.87354,3.12417c2.16698,0.41285 3.36031,1.45328 3.36031,2.689c0,1.25936 0.73018,2.71158 1.46317,3.53584c1.92358,1.45315 1.43407,5.81186 -0.73298,7.26514c-0.73018,0.4353 -1.68004,0.21768 -1.92351,-0.41141c-0.48679,-0.63034 -2.16698,-0.63034 -5.31034,0c-5.06687,1.45203 -6.01407,1.86475 -4.8234,3.75319c0.73291,1.23454 9.16001,0.82314 13.76388,-0.6302c1.43672,-0.62915 1.92358,0 1.92358,2.90668c0,2.08223 -0.48686,3.72963 -1.21712,3.72963c-0.48952,0 -0.94986,0.62902 -0.94986,1.67076c0,2.49495 1.19333,2.27615 4.33661,-0.62922c1.67746,-1.67076 2.65377,-2.08348 3.84709,-1.04154c1.21712,1.04154 1.46317,1.04154 1.46317,-0.62922c0,-1.01817 -0.48952,-1.86475 -1.2197,-1.86475c-0.46042,0 -0.94993,-0.82425 -0.94993,-1.64739c0,-1.04161 0.70646,-1.86475 1.68012,-1.86475c0.73291,0 1.70664,0.41141 1.70664,1.01693c0,0.63047 0.94986,1.45328 2.16963,1.67096c1.67754,0.63034 2.16698,1.45334 1.92351,3.94724c-0.48944,4.77124 0.48694,6.22471 4.09056,5.4017c1.70664,-0.41285 2.65377,0 1.92358,0.82301c-0.21695,0.41141 0,1.45334 0.48686,1.88831c1.95261,1.23579 1.2197,4.14136 -0.94728,4.14136c-2.65642,0 -3.38675,1.04154 -1.94996,2.90649c0.97365,1.04174 1.70656,1.23454 2.65377,0.41154c2.19608,-2.08236 2.65649,-0.41154 2.89989,7.89567c0,4.1646 0.48686,7.48282 0.97373,7.48282c1.19325,0 0.73291,4.57745 -0.97373,6.4422c-0.94986,1.04062 -0.94986,2.05748 -0.24339,2.90531c1.70656,1.86494 0,7.26553 -2.1697,7.26553c-1.92344,0 -5.55366,3.94711 -5.55366,5.81199c0,2.2776 -3.11418,0 -3.84709,-2.49397c-0.73026,-2.27628 -0.73026,-2.27628 -1.21977,-0.6302c-0.46034,1.88963 2.16963,7.70162 4.36313,9.34868c1.43665,1.25955 -1.21977,3.34179 -3.14336,2.49397c-0.97638,-0.41141 -1.43672,-1.64595 -1.43672,-2.90537c0,-3.53551 -6.04059,-12.44824 -10.6206,-15.78989c-2.43682,-1.64739 -4.60387,-3.51214 -4.60387,-4.14116c0,-1.25942 -7.72329,-5.18297 -12.05724,-6.44233c-2.4131,-0.6302 -3.14336,-0.41147 -3.14336,1.25936c0,1.23454 -0.46034,1.64595 -1.43672,1.23454c-2.16698,-0.82314 -3.14328,1.04194 -1.2197,2.90668c2.65642,2.27628 2.19608,4.98885 -0.70381,3.94711c-1.95003,-0.62909 -2.1935,-0.4116 -1.46317,3.12424c0.24339,2.05867 0.73291,4.77124 0.73291,6.00578c0,1.25942 0.48679,2.08256 0.97365,2.08256c0.70654,0 0.94986,-0.4116 0.46042,-1.04062c-0.24339,-0.63034 0.24612,-1.23573 1.2197,-1.23573c0.73298,0 1.43672,0.82412 1.43672,1.64713c0,0.84795 -0.94978,1.67076 -2.65642,1.45347c-1.43407,0 -2.65384,-0.60552 -2.65384,-1.01706c0,-1.88976 -6.50359,-14.7494 -8.4271,-16.63785c-2.16705,-2.05886 -0.73033,-2.68789 -17.85452,7.07135c-2.65377,1.45334 -5.55366,4.57745 -7.01682,6.85393c-1.19333,2.27615 -3.11684,4.57745 -4.09056,4.98885c-0.9763,0.4116 -4.58,3.72963 -7.72336,7.26533c-13.52049,15.57109 -11.32441,17.43597 -10.37713,49.23482c4.09314,24.09585 4.09314,24.09585 4.09314,24.09585c-9.64687,0 -9.64687,0 -9.64687,0c-7.9641,0 -7.9641,0 -7.9641,0c0.73026,-22.23235 0.73026,-22.23235 0.73026,-22.23235c0.48679,-1.8635 0.73291,-5.61794 0.97638,-7.7005c0.24339,-1.23566 -6.7735,-6.63625 -6.53003,-7.87066c0,-1.04174 7.26029,1.86494 7.26029,0.82301c1.19325,-15.15969 0,-27.22015 -3.14336,-33.63872c-0.73026,-3.94731 -6.77343,-16.6366 -7.72064,-16.6366c-0.24347,0 -1.95003,-1.23566 -3.63015,-2.689c-2.89996,-2.71145 -4.09056,-2.9055 -20.26754,-3.72963c-17.36758,-0.84671 -17.36758,-0.84671 -17.36758,-0.84671c-4.11701,2.9055 -4.11701,2.9055 -4.11701,2.9055c-2.41037,1.88956 -4.8234,3.12417 -5.52728,3.12417c-1.46317,0 -7.50634,4.35976 -10.13373,6.85353c-0.24339,0 -0.48679,-0.21729 -0.48679,-0.41141c-0.24347,0 -0.24347,0 -0.24347,-0.21762c-0.24339,-0.60532 -0.48944,-1.23566 -0.9763,-1.86475c1.46317,-1.04174 2.65642,-1.67194 3.14328,-1.45315c0.73026,0.41141 1.43672,0 1.43672,-1.04194c0,-1.04062 -1.43672,-1.45328 -5.28382,-1.04062c-4.60652,0.62922 -5.79978,0.84671 -6.53003,3.31697c-1.19333,1.25936 -1.43672,3.12424 -0.73026,4.57758c-0.24612,1.86475 -0.24612,3.12411 0,3.12411c0.24339,0 0.48679,-0.41141 1.21712,-0.84782c0,0.21768 0.24339,0.43642 0.48944,0.6302c-2.41303,0.62909 -3.6328,2.49397 -3.38675,4.35871c-1.2197,0.84782 -2.41303,1.25936 -3.87612,1.88845c0,0 0,-0.21749 -0.21702,-0.21749c0.94986,-1.86475 1.43672,-3.94731 1.68012,-7.07141c0.48952,-3.51214 0.24339,-5.81199 -0.48679,-5.81199c-0.48686,0 -0.9763,0.84782 -0.9763,2.08217c0.24332,1.04194 -0.21702,2.08256 -1.19075,2.27648c-0.73291,0.21749 -1.2197,-0.19392 -1.2197,-1.23454c0,-2.49508 -0.94728,-2.49508 -3.11691,-0.21873c-0.97365,0.84782 -2.89724,1.86488 -4.57735,2.3013c-2.19608,0.60532 -2.89989,0.19372 -3.87619,-2.08256c-0.73026,-1.86475 -1.21712,-3.94836 -0.73026,-4.77137c0.24339,-1.04174 0.24339,-1.88845 -0.70381,-1.88845c-2.65649,0 -0.73291,-3.31822 2.41037,-3.94843zm20.75433,-47.75666c-1.46317,-0.21749 -2.65649,-0.82301 -3.14328,-1.67083c-0.24347,-1.23566 -0.48686,-1.23566 -0.48686,0c0,0.84782 -0.9763,1.45334 -1.92358,1.67083c-1.70656,0 -1.70656,0.21762 0.24347,1.04194c1.1906,0.41141 2.41037,1.04043 2.65377,1.04043c0.21695,0 1.43672,-0.62902 2.65649,-1.04043c2.16698,-1.04194 2.16698,-1.04194 0,-1.04194zm191.33717,33.4448c0.46042,0.4116 0.94728,-0.21873 0.94728,-1.25936c0,-0.82412 -0.48686,-1.64726 -0.94728,-1.64726c-0.73284,0 -1.2197,0.41154 -1.2197,1.01693c0,0.63034 0.48686,1.47816 1.2197,1.88969zm-1.70656,1.86488c-0.24339,-0.63034 -1.43672,-1.45328 -2.41303,-1.45328c-0.70381,0 -1.19067,0.82294 -0.70381,1.45328c0.21695,0.62909 1.19325,1.04069 2.16698,1.04069c0.94986,0 1.19325,-0.4116 0.94986,-1.04069zm-2.16698,9.34757c0.73026,0 1.70656,-0.21749 1.70656,-0.41141c0,-0.43642 -0.9763,-0.84782 -1.70656,-1.25942c-0.94986,-0.41154 -1.68019,-0.19392 -1.68019,0.4116c0,0.6302 0.73033,1.25923 1.68019,1.25923zm1.92358,-19.73701c0.97365,-0.41173 1.46309,-1.04187 1.21712,-1.64739c-0.73033,-1.47684 -4.82089,-1.47684 -4.82089,0c0,1.64739 1.43414,2.27648 3.60377,1.64739zm-13.25057,-15.57254c-1.21977,0.63034 -1.95003,1.86488 -1.70671,2.49508c1.21977,1.64615 2.65657,1.23454 3.87361,-1.45334c1.19333,-2.49508 0.70646,-2.90649 -2.16691,-1.04174zm-4.60652,31.99152c6.28657,5.59431 6.53003,5.81199 6.53003,3.94724c0,-1.04062 -0.48686,-1.88845 -1.21977,-1.88845c-0.70374,0 -1.92351,-1.04194 -2.65377,-2.27628c-0.70389,-1.23586 -2.16698,-2.49528 -3.36031,-2.49528c-2.19343,0 -2.19343,0.2188 0.70381,2.71277zm-5.06429,-9.78411c1.46059,0 2.16705,-0.41141 1.21719,-0.60539c-0.73026,-0.41154 -1.92358,-0.41154 -2.65384,0c-0.73298,0.19398 0,0.60539 1.43665,0.60539zm-6.99038,-28.23708c0.73026,0.62922 2.89724,1.45223 4.82075,1.86494c3.38683,0.62902 3.63022,0.62902 1.70664,-1.04174c-2.19343,-2.05886 -8.2075,-2.68789 -6.52738,-0.8232zm-14.71381,-34.46153c-0.73026,0.60532 -0.97365,1.86475 -0.73026,2.68769c0.48686,1.67096 1.92358,0.21768 1.92358,-2.27628c0,-1.25942 -0.24347,-1.45334 -1.19333,-0.41141zm7.23385,44.85116c1.92358,1.04049 2.65649,1.04049 3.63287,-0.41272c1.92351,-2.27642 0.70374,-3.31691 -2.89996,-1.86468c-2.89989,1.01804 -2.89989,1.01804 -0.73291,2.2774zm-4.82075,-10.38964c3.63015,-2.27609 3.63015,-2.27609 0.73026,-2.27609c-1.95003,0 -3.38675,0.82281 -4.11701,2.27609c-0.46042,1.45223 -0.94986,2.27648 -0.70646,2.27648c0,0 1.92358,-1.23579 4.09321,-2.27648zm-5.31034,33.66248c1.67746,2.27648 4.57743,2.27648 3.63015,-0.21762c-0.24339,-0.82412 -0.48944,-1.86475 -0.48944,-2.08355c0,-0.19392 -0.97373,-0.19392 -2.16698,0.2188c-1.95003,0.41154 -1.95003,1.04062 -0.97373,2.08236zm-7.47989,-8.52469c1.92351,2.27642 2.89989,2.4939 5.06687,0.82314c1.43672,-1.04062 1.43672,-1.04062 0,-1.23454c-0.73026,0 -2.65384,-0.2188 -4.33396,-0.63034c-2.41303,-0.82301 -2.41303,-0.82301 -0.73291,1.04174zm-0.24339,-22.64382c1.2197,0 2.65642,-3.31802 1.92358,-4.35865c-0.94728,-1.04174 -2.89731,0.62902 -2.89731,2.4939c0,1.04181 0.48686,1.86475 0.97373,1.86475zm-11.81127,14.11906c-1.46317,0.84782 -1.2197,1.04194 0.70389,1.04194c1.2197,0 2.65377,-0.41285 3.14328,-1.04194c0.73018,-1.64706 -1.68019,-1.64706 -3.84717,0zm0.24347,18.28399c0.21695,0.2188 0.94721,-0.21762 1.68012,-1.23454c0.73018,-0.84782 2.89731,-1.88956 4.57735,-2.30116c2.16698,-0.62922 3.14336,-1.64608 3.14336,-3.12424c0,-3.5107 -3.38675,-2.47027 -6.99053,2.08361c-1.46309,2.30005 -2.65377,4.16493 -2.4103,4.57633zm-2.65642,-9.56532c2.16691,-2.27615 2.16691,-2.689 0.46027,-3.31809c-1.92351,-0.82314 -3.35758,1.04194 -3.35758,4.35871c-0.24605,2.49508 -0.24605,2.49508 2.89731,-1.04062zm-3.87361,-24.5085c0.24339,1.67076 0.73026,1.45328 2.16691,-1.64726c1.70671,-3.31697 1.70671,-3.75339 0.24347,-3.75339c-0.94721,0 -1.92358,0.62922 -2.16698,1.67103c-0.48686,0.82294 -0.48686,2.7127 -0.24339,3.72963zm-1.19333,-17.02463c0,0.84671 0.46034,2.9055 0.94986,4.35871c0.73026,2.90662 0.73026,2.90662 1.46317,0.41154c0.94721,-2.49377 0,-6.2234 -1.46317,-6.2234c-0.70646,0 -0.94986,0.62889 -0.94986,1.45315zm-16.90459,6.85262c-1.19325,1.45334 -1.19325,2.90668 -0.24605,7.26533c0.48952,3.12417 1.70929,6.24841 2.41303,6.85393c1.21977,1.04174 1.46317,0 1.70656,-6.44121c0,-7.87085 -1.2197,-10.36574 -3.87354,-7.67805zm2.16698,22.01473c0.24347,0.4116 0.73026,-0.41154 0.48686,-1.6472c0,-1.25942 -0.24339,-1.45334 -0.73026,-0.62909c-0.21702,0.82301 -0.21702,1.86475 0.24339,2.27628zm8.69701,-19.51965c-0.24339,0.4116 -0.24339,3.31822 0.48686,6.44121c0.73291,5.4017 0.94986,5.61919 1.19333,1.67194c0.24339,-6.44233 -0.24347,-9.56643 -1.68019,-8.11315zm-8.21015,58.58258c1.46317,-2.49508 3.87361,-6.66001 5.55373,-9.1549c1.92351,-2.68808 3.14328,-6.22359 3.63015,-9.7593c0.70646,-5.5945 0.70646,-5.5945 0.70646,-5.5945c-2.89989,3.10054 -2.89989,3.10054 -2.89989,3.10054c-1.43672,1.67096 -2.41045,3.53571 -2.41045,4.16493c0,1.64713 -4.58,12.03657 -6.01673,13.90145c-0.73026,1.04043 -1.95003,3.34179 -2.16698,4.98885c-1.21977,4.77038 0.94986,3.94724 3.6037,-1.64706zm-17.12419,21.3844c0.73291,4.14103 0.73291,4.14103 3.14336,-4.77143c1.43672,-4.7952 3.6037,-12.4718 5.06687,-17.2433c1.92351,-6.02967 2.65642,-11.01853 2.65642,-18.06618c0,-9.15398 -0.24605,-9.3479 -2.16956,-8.30596c-4.36048,2.68782 -6.7735,10.17064 -7.74723,24.70111c-0.46034,7.48426 -0.94986,14.96708 -1.43665,16.61434c-0.24347,1.67083 0,4.79506 0.48679,7.07141zm0.48952,-53.15843c0.94721,2.0588 1.92358,3.72963 1.92358,3.72963c0.24339,0 1.434,-1.25942 2.41037,-2.90649c1.2197,-1.45216 3.14328,-3.12299 3.87361,-3.72851c2.87337,-1.88956 3.60363,-7.70155 1.19325,-11.6488c-1.92358,-3.53571 -7.23385,-7.48413 -8.21022,-6.22471c-0.48679,0.41154 -1.1906,4.35996 -1.68012,8.93629c-0.97365,6.85373 -0.97365,8.93721 0.48952,11.84258zm-1.46317,-47.56373c0.48686,0.41272 0.97365,0.19392 0.97365,-0.4351c0,-0.82425 -0.48679,-1.64739 -0.97365,-2.05886c-0.73291,-0.43635 -1.19333,-0.21762 -1.19333,0.60552c0,0.62909 0.46042,1.45334 1.19333,1.88845zm-78.16741,55.84599c3.36023,0.21873 3.36023,0.21873 3.36023,0.21873c3.38675,0 6.7735,-2.689 6.7735,-4.98885c0,-1.45334 -0.24339,-1.45334 -10.13373,4.77012zm1.43672,-5.81206c0,0.63053 0.48686,1.25942 1.21977,1.25942c1.19067,0 4.57735,-3.72963 3.84709,-4.35865c-0.73291,-0.84782 -5.06687,1.86468 -5.06687,3.09923zm2.65642,-14.31279c3.63022,4.14215 5.31034,4.55368 7.23385,1.86468c1.95003,-2.49377 0.24347,-4.16473 -5.55631,-4.77025c-4.82082,-0.63034 -4.82082,-0.63034 -1.67754,2.90557zm-2.65642,-11.64775c0,0.4351 1.70656,1.45203 3.63015,2.29985c8.91404,3.94731 10.6206,3.94731 10.37713,0.19412c0,-2.27648 -3.63015,-7.26546 -5.06687,-7.26546c-1.70656,0 -8.94041,3.94724 -8.94041,4.7715zm13.03362,29.49644c2.65384,0 2.89724,-0.62922 0.73026,-1.64615c-0.9763,-0.21873 -1.92358,0 -2.16698,0.60552c-0.48952,0.62889 0.24339,1.04062 1.43672,1.04062zm1.92358,-48.79847c-1.68019,-1.04187 -3.84982,-1.45328 -4.82347,-1.04187c-1.68012,0.82425 -1.43672,1.04187 0.97365,1.67076c1.19333,0.41285 3.63287,0.82432 4.82347,1.01824c1.43672,0 1.43672,-0.41272 -0.97365,-1.64713zm-0.21695,7.48282c1.434,0 1.68012,-0.21762 0.70381,-0.84671c-0.70381,-0.19379 -1.68019,-0.19379 -2.16705,0.21768c-0.24339,0.41141 0.48686,0.82314 1.46324,0.62902zm1.434,4.77156c-3.38668,0 -3.38668,0.19372 -1.434,1.86468c2.41037,1.86475 3.11418,2.08223 4.09056,0.82301c1.68004,-1.64615 0.48679,-2.68769 -2.65657,-2.68769zm4.82355,-23.46696c-0.97638,-1.04174 -1.21977,0.82314 -0.73033,3.09942c0.24339,1.45334 1.21712,2.71257 1.70664,2.71257c0.94721,0 0.24339,-4.57745 -0.9763,-5.81199zm7.72064,27.41388c-0.48679,0.19412 0.73291,1.45334 2.16963,2.49521c1.46317,1.04062 2.65377,1.4521 2.65377,0.82301c0,-1.45315 -4.09049,-4.16585 -4.8234,-3.31822zm-6.04059,1.45334c-2.16698,1.45347 -0.94721,5.1829 2.1935,5.81212c1.68012,0.41147 4.33661,2.08243 6.01673,3.72949c1.46317,1.67096 2.65377,2.3013 2.65377,1.67096c0,-2.08236 -9.64422,-12.0604 -10.86399,-11.21258zm9.89034,17.2435c-1.43665,-3.34304 -3.11684,-4.98918 -6.26019,-6.03092c-2.41037,-0.82301 -4.8234,-1.25923 -5.55366,-1.04049c-0.73291,0.21749 2.16698,2.90537 6.28664,6.02954c7.72064,5.40059 7.72064,5.40059 5.52721,1.04187zm12.81402,-31.99165c-0.48686,0 -0.97638,0.82314 -0.97638,1.64615c0,1.04174 0.48952,1.67096 0.97638,1.67096c0.70381,0 1.19333,-0.62922 1.19333,-1.67096c0,-0.82301 -0.48952,-1.64615 -1.19333,-1.64615zm-2.19343,17.02463c0,1.45315 4.11701,0.41154 5.79712,-1.45334c2.41045,-3.12411 2.16698,-3.94724 -0.9763,-3.94724c-2.16698,0 -4.82082,2.90675 -4.82082,5.40059zm7.0169,-44.85136c-0.73291,2.68789 -1.21977,4.96417 -0.9763,5.18297c0.73284,0.82314 2.65649,-5.40045 2.65649,-7.89554c0,-1.04062 -0.73298,0.2188 -1.68019,2.71257zm12.54418,41.94467c-1.21977,0 -2.16705,0.41285 -2.16705,1.23566c0,0.62922 0.70381,1.04194 1.43407,1.04194c0.9763,0 1.92358,-0.41272 2.16963,-1.04194c0.48686,-0.82281 -0.24605,-1.23566 -1.43665,-1.23566zm-2.89996,39.03917c1.43672,3.75451 3.6037,7.26533 4.82347,8.11315c1.21977,0.62922 3.63015,3.53584 5.06687,6.44233c1.43672,2.9055 2.89989,5.18185 3.14336,5.18185c1.1906,0 -1.21977,-19.107 -2.89989,-24.92011c-1.46324,-4.98774 -1.92366,-9.56532 -1.68019,-16.83065c0.21695,-5.40045 0,-10.17195 -0.48679,-10.58342c-0.24347,-0.41154 -1.92358,-0.41154 -3.38675,0c-2.65649,0.82301 -2.89989,1.45334 -2.89989,6.03079c0,3.51089 -0.48694,5.40059 -1.68019,6.2234c-3.38668,1.86494 -3.14328,12.4483 0,20.34266zm-6.99038,-27.82541c-0.48686,-3.12417 -0.97365,-3.53571 -3.63015,-3.53571c-3.14336,0 -3.14336,0.21762 -2.89989,4.57633c0,2.689 0.48944,5.81311 0.73284,7.26527c0.24347,1.45334 1.19333,2.90649 2.16705,3.12417c1.92351,1.04187 4.09049,-6.2234 3.63015,-11.43006zm-3.63015,20.97168c-2.16705,-2.49397 -3.63015,-5.18185 -3.84717,-5.81199c0,-0.82301 -1.2197,-2.90537 -2.65384,-4.77025c-1.46317,-1.86475 -3.14328,-4.16591 -3.87619,-4.98905c-2.41037,-2.90649 -1.92358,-0.41141 0.73291,6.02967c1.68012,4.35976 4.57743,8.30707 7.9641,11.6251c6.26012,5.61807 6.99045,4.57653 1.68019,-2.08348zm-3.84717,10.19552c2.6274,0 2.41045,-0.21749 -1.2197,-3.53551c-2.41045,-2.08256 -4.09056,-4.35885 -4.09056,-5.40065c0,-0.82294 -3.14336,-3.75332 -6.77343,-6.44121c-3.60377,-2.7125 -6.99053,-5.40039 -7.47731,-6.22451c-0.48952,-1.04062 -0.73291,-1.04062 -0.73291,0.19392c0,1.25942 -1.19067,1.45315 -5.06687,0.82301c-2.65384,-0.4116 -4.82082,-0.4116 -4.82082,-0.1928c0,0.41154 0.97365,2.9055 1.95003,5.40039c1.68019,4.14123 2.41037,4.98918 7.72071,6.6352c3.36031,1.04174 8.67049,3.53564 12.05724,5.40039c3.14336,1.88976 6.99045,3.34179 8.45362,3.34179zm-37.6615,7.04765c0.9763,0 2.41303,-0.41141 3.38668,-1.04154c1.68019,-1.45223 0.24612,-1.45223 -2.89724,0c-1.43672,0.63014 -1.68012,0.82406 -0.48944,1.04154zm-2.65384,-5.1829c2.41045,-0.84657 10.13373,-1.67083 17.15063,-1.67083c13.24799,-0.19392 15.90441,-0.82281 10.59408,-2.08236c-1.68004,-0.41141 -5.52721,-1.45334 -8.67049,-2.49397c-5.55373,-1.86475 -16.90724,-1.23566 -18.09791,0.8469c-0.24605,0.41252 -1.46317,0.63014 -2.65642,0.41252c-2.41045,-0.6302 -4.82347,1.04076 -5.55373,4.35885c-0.9763,2.68769 0.73026,2.90649 7.23385,0.62889zm-19.29116,4.7715c0.48686,1.67096 2.89989,1.86475 4.82347,0.41141c1.1906,-0.82294 1.1906,-1.23435 0,-2.49377c-0.9763,-1.23586 -1.68012,-1.23586 -3.14328,-0.19392c-0.9763,0.60552 -1.68019,1.64615 -1.68019,2.27628zm-7.72071,14.53067c0.94728,0 1.43414,0.62922 0.94728,1.86488c-0.21702,0.84782 -0.94728,1.67083 -1.43672,1.67083c-0.73026,0 -1.19067,-0.82301 -1.19067,-1.67083c0,-1.01693 0.70381,-1.86488 1.68012,-1.86488z" fill="url(#svg_12)"/>
  <path stroke="null" id="svg_8" d="m298.3994,215.50002c25.00503,0 45.29054,19.61014 45.29054,43.75942c0,24.14929 -20.28551,43.74056 -45.29054,43.74056c-25.00504,0 -45.29055,19.61016 -45.29055,43.75943c0,24.14928 20.28551,43.74056 45.29055,43.74056c50.01005,0 90.6006,-39.20144 90.6006,-87.49999c0,-48.29856 -40.59055,-87.49997 -90.6006,-87.49997l0,0.00001zm0,30.0846c-7.81809,0 -14.15941,6.12427 -14.15941,13.67482c0,7.55056 6.3413,13.67482 14.15941,13.67482c7.8181,0 14.15939,-6.12427 14.15939,-13.67482c0,-7.55054 -6.34128,-13.67482 -14.15939,-13.67482zm0,87.49999c7.81406,0 14.15939,6.12816 14.15939,13.67482c0,7.54664 -6.34532,13.67483 -14.15939,13.67483c-7.81407,0 -14.15941,-6.12819 -14.15941,-13.67483c0,-7.54664 6.34534,-13.67482 14.15941,-13.67482zm88.56849,-30.02886c0,48.26267 -40.51103,87.3873 -90.48396,87.3873c-49.97291,0 -90.48396,-39.12463 -90.48396,-87.3873c0,-48.26269 40.51105,-87.38733 90.48396,-87.38733c49.97293,0 90.48396,39.12464 90.48396,87.38733z" fill="#000000"/>
 </g>
</svg>